<?xml version="1.0" encoding="UTF-8" standalone="no"?>
<!-- Created with Inkscape (http://www.inkscape.org/) -->

<svg
   xmlns:dc="http://purl.org/dc/elements/1.1/"
   xmlns:cc="http://creativecommons.org/ns#"
   xmlns:rdf="http://www.w3.org/1999/02/22-rdf-syntax-ns#"
   xmlns:svg="http://www.w3.org/2000/svg"
   xmlns="http://www.w3.org/2000/svg"
   xmlns:sodipodi="http://sodipodi.sourceforge.net/DTD/sodipodi-0.dtd"
   xmlns:inkscape="http://www.inkscape.org/namespaces/inkscape"
   width="52.449383mm"
   height="52.267273mm"
   viewBox="0 0 52.449383 52.267273"
   version="1.1"
   id="svg8"
   inkscape:version="0.92.3 (2405546, 2018-03-11)"
   sodipodi:docname="bare_label-research_open.svg">
  <defs
     id="defs2" />
  <sodipodi:namedview
     id="base"
     pagecolor="#323232"
     bordercolor="#666666"
     borderopacity="1.0"
     inkscape:pageopacity="0"
     inkscape:pageshadow="2"
     inkscape:zoom="1.4"
     inkscape:cx="175.82501"
     inkscape:cy="126.90268"
     inkscape:document-units="mm"
     inkscape:current-layer="layer1"
     showgrid="false"
     showguides="false"
     inkscape:window-width="800"
     inkscape:window-height="516"
     inkscape:window-x="-8"
     inkscape:window-y="-8"
     inkscape:window-maximized="1"
     inkscape:pagecheckerboard="true">
    <inkscape:grid
       type="xygrid"
       id="grid4591"
       originx="0.36770833"
       originy="1.6349815" />
  </sodipodi:namedview>
  <metadata
     id="metadata5">
    <rdf:RDF>
      <cc:Work
         rdf:about="">
        <dc:format>image/svg+xml</dc:format>
        <dc:type
           rdf:resource="http://purl.org/dc/dcmitype/StillImage" />
        <dc:title></dc:title>
      </cc:Work>
    </rdf:RDF>
  </metadata>
  <g
     inkscape:label="Calque 1"
     inkscape:groupmode="layer"
     id="layer1"
     transform="translate(0.36770834,-246.36771)">
    <rect
       style="fill:#ffffff;fill-opacity:1;stroke:#000000;stroke-width:1;stroke-miterlimit:4;stroke-dasharray:none;stroke-opacity:1"
       id="rect3771"
       width="50"
       height="50"
       x="0.13229166"
       y="246.86771" />
    <g
       aria-label="BARE"
       style="font-size:16.76997948px;font-family:'Berlin Sans FB Demi';fill:#000000;stroke-width:0.93166548"
       id="shape0">
      <path
         d="m 14.255728,277.41815 q 0,1.50668 -0.941674,2.49748 -1.072689,1.1382 -3.7666946,1.1382 -0.2047117,0 -0.5895696,-0.008 -0.3930464,0 -0.5813811,0 -3.0215442,0 -3.5947368,-0.12283 -0.2374656,-0.0491 -0.2374656,-0.25384 0,-0.87617 0.098262,-2.65306 0.1064501,-1.7769 0.1064501,-2.66125 0,-0.94987 -0.098262,-3.57018 -0.024565,-0.67145 -0.090073,-2.01436 l -0.00819,-0.11464 q -0.00819,-0.15558 0.2538425,-0.18833 0.2702194,-0.0328 1.8997242,-0.0328 2.6121208,0 3.054298,0.0164 2.0143629,0.0737 2.9724139,0.65508 1.269212,0.7779 1.269212,2.6285 0,0.48312 -0.294785,1.02355 -0.2129,0.38486 -0.556815,0.76972 -0.302974,0.33573 -0.302974,0.31116 0,0.0573 0.212901,0.18015 0.573192,0.32754 0.900731,1.03993 0.294785,0.6387 0.294785,1.35929 z m -3.521041,-4.61011 q 0,-0.70421 -0.704208,-0.93348 -0.3930465,-0.12283 -1.2937778,-0.12283 -0.8843544,0 -0.8843544,0.13102 0,0.15558 -0.032754,0.47493 -0.024565,0.31116 -0.024565,0.46674 0,0.81885 0.139204,0.91711 0.090073,0.0737 1.0399352,0.0737 1.76052,0 1.76052,-1.00718 z m 0.245654,4.57735 q 0,-0.73696 -0.614135,-0.99899 -0.3930464,-0.16377 -1.2774007,-0.16377 -1.0563122,0 -1.1463854,0.0819 -0.090073,0.0737 -0.090073,0.99899 0,0.96624 0.1064501,1.07269 0.10645,0.0983 1.1791392,0.0983 0.8843538,0 1.2446468,-0.1392 0.597758,-0.23747 0.597758,-0.94987 z"
         style="stroke-width:0.93166548"
         id="path4593"
         inkscape:connector-curvature="0" />
      <path
         d="m 26.088062,280.75085 q 0,0.1474 -0.204712,0.20472 -0.245654,0.0655 -1.523055,0.0655 -1.170951,0 -1.506678,-0.0655 -0.278408,-0.0573 -0.352104,-0.36848 -0.278408,-1.17914 -0.433988,-1.26103 -0.131016,-0.0573 -2.194509,-0.0573 -1.39204,0 -1.482113,0.0737 -0.139204,0.13101 -0.311162,0.87616 -0.155581,0.67965 -0.376669,0.73697 -0.278408,0.0655 -1.86697,0.0655 -1.252836,0 -1.252836,-0.23746 0,-0.2129 1.850594,-5.23243 2.006174,-5.42895 2.178132,-5.96939 0.09826,-0.31117 0.229277,-0.31117 0.221088,0 0.679642,0.041 0.466743,0.0409 0.69602,0.0409 0.221089,0 0.646889,-0.0246 0.433989,-0.0328 0.646889,-0.0328 0.155581,0 0.286596,0.27022 0.401235,0.85979 2.341902,5.8957 1.948855,5.06866 1.948855,5.28974 z m -5.805623,-7.45969 q -0.171958,0.36029 -0.581381,1.564 -0.442177,1.2774 -0.442177,1.49849 0,0.14739 0.491308,0.16377 0.253842,0.0164 0.835223,0.0164 0.540439,0 0.597758,-0.13101 0.01638,-0.0409 0.01638,-0.11464 0,-0.27022 -0.376669,-1.4903 -0.368481,-1.17914 -0.540439,-1.50668 z"
         style="stroke-width:0.93166548"
         id="path4595"
         inkscape:connector-curvature="0" />
      <path
         d="m 36.675749,280.87368 q 0,0.0573 -0.163769,0.0819 -0.311162,0.0491 -1.563997,0.0491 -1.07269,0 -1.457547,-0.0491 -0.180147,-0.0246 -0.204712,-0.041 -0.04913,-0.0246 -0.114639,-0.16377 -0.122827,-0.31935 -0.360292,-0.94986 -0.31935,-0.81884 -0.998993,-2.4156 -0.147393,-0.31935 -0.679643,-0.3521 0.245654,0.0164 -0.843412,0.0164 -0.122827,0 -0.122827,0.41761 0,0.55682 0.09826,1.66226 0.10645,1.10544 0.10645,1.66226 0,0.1392 -0.0737,0.16377 -0.114639,0.008 -0.229278,0.0164 -0.483119,0.0328 -1.506677,0.0328 -1.170951,0 -1.408417,-0.0491 -0.237465,-0.0491 -0.237465,-0.25385 0,-0.90073 0.08188,-2.71857 0.09007,-1.81784 0.09007,-2.72676 0,-3.46372 -0.155581,-5.40438 l -0.0082,-0.11464 q -0.0082,-0.13921 0.253843,-0.18834 0.270219,-0.0491 2.505671,-0.0983 1.514866,-0.0327 2.415597,-0.0327 1.866971,0 3.04611,0.84341 1.33472,0.94986 1.33472,2.74314 0,1.19551 -0.343916,1.90791 -0.343915,0.71239 -1.269212,1.38385 -0.188335,0.13101 -0.188335,0.24565 0,-0.008 0.998993,2.05531 0.998993,2.06349 0.998993,2.27639 z m -3.439156,-7.34505 q 0,-0.999 -0.655077,-1.38385 -0.507685,-0.29479 -1.588563,-0.29479 -0.777904,0 -0.827035,0.23747 -0.04913,0.27841 -0.04913,1.60494 0,0.18833 0.0082,0.55681 0.0082,0.36848 0.0082,0.54863 0,0.0409 0.262031,0.0819 0.499497,0.0737 1.048124,0.0737 1.793274,0 1.793274,-1.42479 z"
         style="stroke-width:0.93166548"
         id="path4597"
         inkscape:connector-curvature="0" />
      <path
         d="m 45.977846,278.40895 q 0,0.35211 -0.139204,1.29378 -0.147393,1.02356 -0.262031,1.22008 -0.09826,0.15558 -0.270219,0.15558 -0.0737,0 -0.245654,-0.0246 -0.597759,-0.0819 -3.488287,-0.0819 -0.630512,0 -1.875159,-0.008 -1.244647,-0.008 -1.86697,-0.008 -0.27022,0 -0.27022,-0.23747 0,-0.91711 0.09826,-2.75132 0.10645,-1.84241 0.10645,-2.75952 0,-0.93348 -0.09826,-3.4801 -0.02457,-0.65507 -0.09007,-1.95704 l -0.0082,-0.11464 q -0.01638,-0.18833 0.204711,-0.18833 0.605947,0 1.81784,0.0328 1.220081,0.0328 1.826028,0.0328 0.597758,0 1.801463,-0.0328 1.203704,-0.0328 1.801462,-0.0328 0.4258,0 0.491308,0.31935 0.04094,0.18833 0.122827,1.14638 0.09007,0.94987 0.09007,1.15458 0,0.17195 -0.163769,0.17195 -0.04913,0 -0.171958,-0.008 -2.178132,-0.18015 -3.914087,-0.18015 -0.433989,0 -0.53225,0.20471 -0.04094,0.0983 -0.04094,0.63051 0,0.55682 0.163769,0.73697 0.139204,0.15558 0.53225,0.15558 0.08188,0 0.31935,-0.008 0.237466,-0.0164 0.393047,-0.0164 1.031747,0 2.088059,-0.0573 0.09007,-0.008 0.450365,-0.0409 0.278408,-0.0328 0.442178,-0.0328 0.196523,0 0.196523,0.18833 0,-0.17196 -0.147393,1.25284 -0.06551,0.65507 -0.06551,1.31015 0,0.16377 -0.237466,0.16377 0,0 -0.736962,-0.0819 -0.466742,-0.0491 -2.129001,-0.0491 h -0.867978 q -0.335727,0 -0.393046,0.16377 -0.0082,0.041 -0.0082,0.50769 0,0.62232 0.08188,0.80247 0.139204,0.31116 1.048124,0.36848 -0.01638,0 1.195516,0 0.433989,0 1.285589,-0.0737 0.859789,-0.0819 1.28559,-0.0819 0.180146,0 0.180146,0.29478 z"
         style="stroke-width:0.93166548"
         id="path4599"
         inkscape:connector-curvature="0" />
    </g>
    <g
       aria-label="label"
       style="font-size:10.24735832px;font-family:'Berlin Sans FB Demi';fill:#000000;stroke-width:1.02473581"
       id="shape0-8">
      <path
         d="m 16.297741,287.81572 q 0,1.36598 0.01001,2.0965 0,0.11509 0.01501,0.39529 0.01501,0.25518 0.01501,0.39528 0,0.10508 -0.125089,0.12509 -0.225162,0.04 -0.810582,0.04 -0.600432,0 -0.76555,-0.04 -0.110079,-0.025 -0.12509,-0.1351 0,-0.015 0,-0.21515 0,-0.44532 0.01001,-1.33096 0.01001,-0.89064 0.01001,-1.33095 0,-2.10151 0.005,-1.91638 -0.01501,-1.10579 -0.12509,-1.90637 -0.01001,-0.055 -0.01001,-0.0851 0,-0.11008 0.130093,-0.11008 h 1.786283 q 0.12509,0 0.115083,0.10508 l -0.005,0.0901 q -0.130093,2.16156 -0.130093,3.82275 z"
         style="stroke-width:1.02473581"
         id="path4602"
         inkscape:connector-curvature="0" />
      <path
         d="m 22.247013,288.32608 q 0,0.38528 0.04503,1.14583 0.04503,0.76054 0.04503,1.14082 0,0.20014 -0.175125,0.21515 -0.620446,0.045 -1.421021,0.045 -0.09507,0 -0.130093,-0.2852 -0.03002,-0.29021 -0.07505,-0.29521 -0.04003,0.02 -0.105076,0.0851 -0.560402,0.5654 -1.200862,0.5654 -0.975701,0 -1.61616,-0.77055 -0.605435,-0.72052 -0.605435,-1.72124 0,-1.15583 0.625449,-1.86133 0.650467,-0.73053 1.781279,-0.73053 0.785564,0 1.240891,0.5504 0.02001,0.025 0.03503,0.025 0.04503,0 0.100072,-0.24018 0.06004,-0.24517 0.140101,-0.24517 0.185133,0 0.705506,0.10507 0.495356,0.10008 0.71051,0.17013 0.07505,0.03 0.07505,0.08 0,0.02 -0.01501,0.10508 -0.160115,0.90565 -0.160115,1.91637 z m -1.611157,0.03 q 0,-0.42531 -0.270194,-0.70051 -0.265191,-0.2802 -0.6955,-0.2802 -0.430309,0 -0.695499,0.2752 -0.265191,0.2752 -0.265191,0.70551 0,0.40529 0.280202,0.6955 0.280201,0.2902 0.680488,0.2902 0.425306,0 0.6955,-0.27519 0.270194,-0.28021 0.270194,-0.71051 z"
         style="stroke-width:1.02473581"
         id="path4604"
         inkscape:connector-curvature="0" />
      <path
         d="m 28.666622,288.38112 q 0,1.05076 -0.600431,1.75627 -0.64046,0.75053 -1.6712,0.75053 -0.750539,0 -1.21087,-0.43031 -0.03503,-0.03 -0.06004,-0.03 -0.05004,0 -0.09507,0.18514 -0.04003,0.18513 -0.100072,0.20514 -0.08506,0.025 -1.426024,0.025 -0.315226,0 -0.315226,-0.11508 0,-0.015 0.01001,-0.075 0.100072,-0.79558 0.100072,-3.03218 0,-2.13654 -0.150108,-3.71767 l -0.005,-0.055 q 0,-0.0801 0.155112,-0.0901 0.110079,-0.005 0.870625,-0.075 0.535384,-0.05 0.870625,-0.05 0.09507,0 0.09507,0.16512 0,0.19514 -0.02502,0.51537 -0.03002,0.39529 -0.03503,0.52038 -0.02502,0.49535 -0.02502,1.35097 0,0.15511 0.08006,0.15511 0.04003,0 0.07505,-0.04 0.450323,-0.48035 1.180848,-0.48035 1.095787,0 1.711228,0.74554 0.57041,0.6905 0.57041,1.8163 z m -1.811301,-0.055 q 0,-0.41529 -0.255183,-0.7005 -0.255183,-0.29021 -0.665478,-0.29021 -0.420301,0 -0.665478,0.29021 -0.240172,0.28521 -0.240172,0.71051 0,0.44032 0.235169,0.71051 0.25018,0.28521 0.680488,0.28521 0.425306,0 0.675486,-0.29522 0.235168,-0.27519 0.235168,-0.71051 z"
         style="stroke-width:1.02473581"
         id="path4606"
         inkscape:connector-curvature="0" />
      <path
         d="m 33.870359,288.11093 q 0,0.50536 -0.325234,0.57541 -0.05504,0.01 -1.035744,0.11008 -0.590424,0.065 -1.761264,0.15511 0.07005,0.32524 0.425305,0.49536 0.290208,0.1401 0.660474,0.1401 0.44532,0 0.895643,-0.24017 0.190137,-0.12009 0.380273,-0.24018 0.105076,0.05 0.350252,0.51037 0.25018,0.46033 0.25018,0.58542 0,0.035 -0.07505,0.11508 -0.610439,0.65548 -1.896362,0.65548 -1.190855,0 -1.92138,-0.6955 -0.750539,-0.70551 -0.750539,-1.88636 0,-1.15083 0.670482,-1.88635 0.690496,-0.76055 1.831315,-0.76055 0.96069,0 1.631171,0.7005 0.670482,0.70051 0.670482,1.6662 z m -1.751258,-0.30522 q 0,-0.31022 -0.220158,-0.54539 -0.220158,-0.23517 -0.525377,-0.23517 -0.315227,0 -0.520374,0.26519 -0.190136,0.24518 -0.190136,0.57541 0,0.1351 0.1401,0.1351 0.370266,0 1.150826,-0.11508 0.165119,-0.025 0.165119,-0.0801 z"
         style="stroke-width:1.02473581"
         id="path4608"
         inkscape:connector-curvature="0" />
      <path
         d="m 36.252069,287.81572 q 0,1.36598 0.01001,2.0965 0,0.11509 0.01501,0.39529 0.01501,0.25518 0.01501,0.39528 0,0.10508 -0.12509,0.12509 -0.225162,0.04 -0.810582,0.04 -0.600431,0 -0.76555,-0.04 -0.110079,-0.025 -0.125089,-0.1351 0,-0.015 0,-0.21515 0,-0.44532 0.01001,-1.33096 0.01001,-0.89064 0.01001,-1.33095 0,-2.10151 0.005,-1.91638 -0.01501,-1.10579 -0.125089,-1.90637 -0.01001,-0.055 -0.01001,-0.0851 0,-0.11008 0.130094,-0.11008 h 1.786283 q 0.125089,0 0.115082,0.10508 l -0.005,0.0901 q -0.130094,2.16156 -0.130094,3.82275 z"
         style="stroke-width:1.02473581"
         id="path4610"
         inkscape:connector-curvature="0" />
    </g>
    <g
       aria-label="🌱"
       style="font-size:15.12749863px;font-family:'Times New Roman';fill:#000000;stroke-width:1.08053553"
       id="shape0-85">
      <path
         d="m 28.703757,252.78752 h 4.779049 v 0.58353 q 0,0.46535 -0.03693,0.9307 -0.03693,0.46535 -0.162503,0.91592 -0.214207,0.75342 -0.664782,1.38127 -0.450575,0.62047 -1.063653,1.07843 -0.613077,0.45057 -1.344338,0.70171 -0.731261,0.25114 -1.506841,0.25114 h -2.119918 v 0.60569 l 0.177276,0.16251 q 0.398869,0.38409 0.75342,0.74603 0.354551,0.36194 0.613077,0.76819 0.258527,0.39887 0.406257,0.87899 0.155116,0.48012 0.155116,1.10059 0,0.76819 -0.288073,1.44036 -0.288072,0.67956 -0.790353,1.18184 -0.50228,0.50228 -1.181836,0.79035 -0.672169,0.28807 -1.440362,0.28807 -0.768193,0 -1.447749,-0.29546 -0.672169,-0.28807 -1.174449,-0.79035 -0.50228,-0.50228 -0.797739,-1.18184 -0.288073,-0.67217 -0.288073,-1.44036 0,-0.74603 0.280686,-1.42559 0.280686,-0.67955 0.797739,-1.21138 0.25114,-0.25853 0.509667,-0.50228 0.265913,-0.25114 0.52444,-0.50967 v -3.78926 h -2.119918 q -0.989788,0 -1.861392,-0.37671 -0.864217,-0.37671 -1.514227,-1.02672 -0.65001,-0.65001 -1.02672,-1.51422 -0.37671,-0.87161 -0.37671,-1.8614 v -1.06365 h 4.247223 q 0.915922,0 1.772753,0.28069 0.864218,0.28068 1.580706,0.79035 0.723874,0.50967 1.27786,1.22615 0.553985,0.70911 0.864217,1.57332 0.553986,-0.33977 1.181836,-0.50966 0.635237,-0.17728 1.285246,-0.17728 z m 2.43015,3.87051 q 0.140343,-0.096 0.243754,-0.22159 0.110797,-0.12557 0.214208,-0.25114 0.406256,-0.50228 0.613077,-1.0932 0.214208,-0.59092 0.214208,-1.24093 h -3.715397 q -0.465347,0 -0.938082,0.12557 -0.465348,0.12557 -0.893763,0.36194 -0.428416,0.23637 -0.782966,0.57615 -0.347165,0.33239 -0.568759,0.74603 -0.0074,-0.68694 -0.140343,-1.31479 -0.132956,-0.62785 -0.465348,-1.23354 -0.302845,-0.56138 -0.75342,-1.01195 -0.450575,-0.45796 -1.00456,-0.77558 -0.5466,-0.31762 -1.167063,-0.48751 -0.613078,-0.16989 -1.248314,-0.16989 h -3.183571 q 0,0.7682 0.288073,1.44775 0.295459,0.67956 0.797739,1.18184 0.50228,0.50228 1.181836,0.79774 0.679555,0.28807 1.447749,0.28807 h 2.119918 q 0.273299,0 0.509666,0.12557 0.258527,0.13296 0.406256,0.39887 0.14773,0.25853 0.14773,0.53921 v 4.23245 q 0,0.47274 -0.0074,0.94547 0,0.46535 0,0.93808 0,0.35455 0,0.7091 0.0074,0.35456 0.01477,0.70911 0.0074,0.0886 0.05909,0.16988 0.05909,0.0739 0.132957,0.13296 0.08125,0.0591 0.162502,0.096 0.08864,0.0295 0.169889,0.0295 0.236367,0 0.39887,-0.17727 0.132956,-0.15512 0.132956,-0.35455 v -5.31088 h 3.18357 q 0.39887,0 0.782967,-0.0739 0.391483,-0.0813 0.75342,-0.25114 0.08125,-0.0369 0.206821,-0.10342 0.132957,-0.0739 0.265913,-0.15511 0.132957,-0.0886 0.25114,-0.16989 0.118184,-0.0886 0.169889,-0.15512 z m -6.145546,8.87116 q 0.546599,0 1.02672,-0.20682 0.480121,-0.20682 0.842058,-0.56876 0.361937,-0.35455 0.568758,-0.83467 0.206822,-0.48012 0.206822,-1.02672 0,-0.44319 -0.140343,-0.84206 -0.132957,-0.40626 -0.391483,-0.76081 l -1.04888,1.05627 q 0,0.0886 0,0.17727 0.0074,0.0886 0.0074,0.17728 0,0.25114 -0.06648,0.48012 -0.06648,0.22159 -0.199435,0.39148 -0.132957,0.16989 -0.339778,0.26592 -0.199435,0.10341 -0.465348,0.10341 -0.221594,0 -0.413642,-0.0886 -0.192049,-0.0813 -0.339778,-0.22898 -0.140343,-0.14034 -0.228981,-0.33239 -0.08125,-0.19205 -0.08125,-0.41364 v -0.53183 l -1.048879,-1.05627 q -0.258527,0.35455 -0.39887,0.76081 -0.132957,0.39887 -0.132957,0.84206 0,0.5466 0.206822,1.02672 0.206821,0.48012 0.568758,0.83467 0.361937,0.36194 0.842058,0.56876 0.480121,0.20682 1.02672,0.20682 z m 5.310875,-10.61436 q 0.214208,0 0.369324,0.1625 0.162502,0.15511 0.162502,0.36932 0,0.21421 -0.162502,0.37671 -0.155116,0.15512 -0.369324,0.15512 h -2.659131 q -0.214208,0 -0.37671,-0.15512 -0.155116,-0.1625 -0.155116,-0.37671 0,-0.21421 0.155116,-0.36932 0.162502,-0.1625 0.37671,-0.1625 z m -7.962619,-3.18357 q 0.214208,0 0.369324,0.15511 0.155116,0.15512 0.155116,0.36933 0,0.2142 -0.155116,0.37671 -0.155116,0.15511 -0.369324,0.15511 h -2.659131 q -0.221594,0 -0.37671,-0.15511 -0.155116,-0.15512 -0.155116,-0.37671 0,-0.21421 0.155116,-0.36933 0.162503,-0.15511 0.37671,-0.15511 z"
         style="stroke-width:1.08053553"
         id="path4613"
         inkscape:connector-curvature="0" />
    </g>
    <path
       style="fill:none;stroke:#000000;stroke-width:2;stroke-linecap:butt;stroke-linejoin:miter;stroke-miterlimit:4;stroke-dasharray:none;stroke-opacity:1"
       d="M 2.7058911,297.63498 H 51.081674 v -48.77669"
       id="path843"
       inkscape:connector-curvature="0" />
    <g
       aria-label="⚛ "
       transform="matrix(0.17696433,0,0,0.17696433,19.854922,243.21066)"
       style="font-style:normal;font-weight:normal;font-size:40px;line-height:1.25;font-family:sans-serif;letter-spacing:0px;word-spacing:0px;fill:#000000;fill-opacity:1;stroke:none"
       id="flowRoot31">
      <path
         d="m -89.927734,43.330078 q 0.371093,0 0.722656,0.195313 0.351562,0.175781 0.546875,0.527343 0.195312,0.351563 0.195312,0.761719 0,0.390625 -0.195312,0.742188 -0.195313,0.332031 -0.546875,0.527343 -0.351563,0.195313 -0.722656,0.195313 -0.390625,0 -0.742188,-0.195313 -0.351562,-0.195312 -0.546875,-0.527343 -0.195312,-0.351563 -0.195312,-0.742188 0,-0.410156 0.195312,-0.761719 0.195313,-0.351562 0.546875,-0.527343 0.351563,-0.195313 0.742188,-0.195313 z m -4.785157,4.238281 q -1.542968,-1.035156 -2.929687,-2.148437 -2.480472,2.011719 -3.476562,3.652344 -0.72266,1.152343 -0.72266,1.894531 0,0.351562 0.15625,0.625 0.44922,0.761719 2.128909,0.761719 0.15625,0 0.332032,0 1.933593,-0.07813 4.902343,-1.191407 -0.273437,-1.757812 -0.390625,-3.59375 z m 9.53125,0 q -0.117187,1.835938 -0.390625,3.59375 2.988282,1.113282 4.921875,1.191407 0.175782,0 0.332032,0 1.679687,0 2.128906,-0.761719 0.15625,-0.273438 0.15625,-0.625 0,-0.761719 -0.722656,-1.894531 -1.015625,-1.640625 -3.496094,-3.652344 -1.386719,1.113281 -2.929688,2.148437 z m 0.05859,-4.296875 q 0.03906,0.761719 0.03906,1.542969 0,0.761719 -0.03906,1.523438 1.113281,-0.742188 2.128906,-1.523438 -1.015625,-0.800781 -2.128906,-1.542969 z m -1.015625,-0.683593 q -0.917969,-0.585938 -1.875,-1.132813 -0.976562,-0.546875 -1.953125,-1.054687 -0.957031,0.507812 -1.894531,1.054687 -0.976563,0.546875 -1.894531,1.132813 -0.03906,1.09375 -0.03906,2.226562 0,1.113281 0.03906,2.207031 0.898437,0.585938 1.894531,1.132813 0.9375,0.566406 1.933594,1.074219 0.957031,-0.507813 1.914062,-1.074219 0.976563,-0.546875 1.875,-1.132813 0.05859,-1.09375 0.05859,-2.207031 0,-1.132812 -0.05859,-2.226562 z m 0.546875,-4.140625 q 0.292969,1.757812 0.410156,3.613281 1.542969,1.035156 2.910157,2.148437 2.441406,-1.972656 3.496093,-3.632812 0.742188,-1.152344 0.742188,-1.914063 0,-0.371093 -0.15625,-0.644531 -0.449219,-0.78125 -2.128906,-0.78125 -0.175782,0 -0.390625,0.01953 -1.972657,0.09766 -4.882813,1.191408 z m -8.574219,-0.917969 0.01953,-0.03906 q 0.664062,-3.496093 1.816406,-5.371093 1.171875,-1.875 2.402344,-1.875 1.210937,0 2.363281,1.875 1.152344,1.875 1.816406,5.371093 v 0.03906 q 3.203125,-1.132813 5.390625,-1.132813 0.05859,0 0.136719,0 2.265625,0.03906 2.890625,1.132813 0.234375,0.390625 0.234375,0.917969 0,0.898437 -0.683594,2.109375 -1.09375,1.972656 -3.75,4.257812 l 0.01953,0.01953 q 2.695313,2.304688 3.769532,4.238282 0.644531,1.210937 0.644531,2.089843 0,0.527344 -0.234375,0.917969 -0.605469,1.074219 -1.757813,1.113281 -1.152343,0.01953 -1.269531,0.01953 -2.148437,0 -5.351562,-1.132813 h -0.01953 q -0.664062,3.4375 -1.796875,5.351563 -1.152343,1.933593 -2.402343,1.933593 -1.269532,0 -2.441407,-1.933593 -1.132812,-1.914063 -1.796875,-5.351563 -3.164062,1.152344 -5.3125,1.152344 -0.117187,0 -1.289059,-0.03906 -1.17187,-0.03906 -1.77734,-1.113281 -0.21485,-0.390625 -0.21485,-0.898437 0,-0.878907 0.64454,-2.109375 1.05468,-1.933594 3.749991,-4.257813 -2.656241,-2.285156 -3.710931,-4.238281 -0.6836,-1.230469 -0.6836,-2.148438 0,-0.507812 0.21485,-0.898437 0.625,-1.09375 2.871087,-1.132813 0.07813,0 0.136719,0 2.1875,0 5.371094,1.132813 z m 7.539063,0.332031 q -0.527344,-3.164062 -1.425781,-4.863281 -0.917969,-1.757813 -1.875,-1.757813 -0.996094,0 -1.914063,1.757813 -0.898437,1.699219 -1.425781,4.863281 1.660156,0.625 3.339844,1.445313 1.640625,-0.820313 3.300781,-1.445313 z m 0.136719,0.9375 q -1.171875,0.488281 -2.382813,1.054688 0.664063,0.351562 1.367188,0.742187 0.644531,0.410156 1.289062,0.800781 -0.09766,-1.328125 -0.273437,-2.597656 z m -6.914063,0.01953 q -0.175781,1.25 -0.273437,2.578125 0.644531,-0.390625 1.308593,-0.800781 0.683594,-0.390625 1.347657,-0.742187 -1.210938,-0.566407 -2.382813,-1.035157 z m -0.917969,-0.371093 q -2.910156,-1.09375 -4.84375,-1.191407 -0.214843,-0.01953 -0.390625,-0.01953 -1.679685,0 -2.109375,0.78125 -0.17578,0.292969 -0.17578,0.664063 0,0.761718 0.74219,1.894531 1.05469,1.640625 3.476559,3.613281 1.367188,-1.113281 2.910156,-2.148437 0.117188,-1.835938 0.390625,-3.593751 z m -0.449218,4.824218 q -1.113282,0.742188 -2.109375,1.542969 0.996093,0.78125 2.109375,1.523438 -0.01953,-0.761719 -0.01953,-1.523438 0,-0.78125 0.01953,-1.542969 z m 1.09375,4.941407 q 0.09766,1.328125 0.273437,2.597656 1.171875,-0.488281 2.382813,-1.054688 -0.683594,-0.351562 -1.347657,-0.742187 -0.683593,-0.390625 -1.308593,-0.800781 z m 4.804687,1.542968 q 1.210938,0.566407 2.382813,1.054688 0.175781,-1.269531 0.273437,-2.597656 -0.625,0.410156 -1.289062,0.800781 -0.703125,0.390625 -1.367188,0.742187 z m -1.09375,0.546875 q -1.640625,0.820313 -3.300781,1.464844 0.507812,3.085938 1.40625,4.824219 0.917969,1.777344 1.933594,1.777344 0.996093,0 1.894531,-1.777344 0.898437,-1.738281 1.40625,-4.824219 -1.679688,-0.644531 -3.339844,-1.464844 z"
         id="path58"
         inkscape:connector-curvature="0" />
    </g>
    <g
       aria-label="👁"
       transform="matrix(0.14210792,0,0,0.14210792,8.2883384,239.64807)"
       style="font-style:normal;font-weight:normal;font-size:40px;line-height:1.25;font-family:sans-serif;letter-spacing:0px;word-spacing:0px;fill:#000000;fill-opacity:1;stroke:none"
       id="flowRoot47">
      <path
         d="m -13.261719,114.21768 q -1.503906,2.71484 -3.691406,4.6289 -5.253906,4.64844 -13.046875,4.64844 -7.792969,0 -13.066406,-4.64844 -2.1875,-1.91406 -3.710938,-4.6289 1.523438,-2.71485 3.710938,-4.64844 5.273437,-4.64844 13.066406,-4.64844 7.792969,0 13.046875,4.64844 2.1875,1.93359 3.691406,4.64844 z m -3.183593,0 q -0.957032,-1.67969 -2.324219,-3.00782 -3.28125,-3.16406 -8.085938,-3.96484 2.089844,0.89844 3.359375,2.75391 1.289063,1.91406 1.289063,4.21875 0,2.28515 -1.269531,4.16015 -1.25,1.875 -3.300782,2.79297 7.070313,-1.21094 10.332032,-6.95312 z m -7.382813,0 q 0,-2.5 -1.816406,-4.27735 -1.816406,-1.77734 -4.375,-1.77734 -1.347656,0 -2.558594,0.54687 l -0.644531,-1.46484 q -7.089844,1.21094 -10.371094,6.97266 0.957031,1.67968 2.304688,2.98828 3.261718,3.14453 8.007812,3.96484 -2.050781,-0.91797 -3.300781,-2.79297 -1.25,-1.875 -1.25,-4.16015 0,-1.38672 0.488281,-2.69532 l 1.5625,0.48829 q -0.429687,1.07421 -0.429687,2.20703 0,2.51953 1.816406,4.29687 1.816406,1.75781 4.375,1.75781 2.558594,0 4.375,-1.75781 1.816406,-1.77734 1.816406,-4.29687 z m -1.503906,0 q 0,1.89453 -1.386719,3.24218 -1.367187,1.34766 -3.300781,1.34766 -1.953125,0 -3.320313,-1.34766 -1.367187,-1.34765 -1.367187,-3.24218 0,-0.83985 0.292969,-1.6211 l 4.785156,2.16797 -2.246094,-4.74609 q 0.878906,-0.39063 1.855469,-0.39063 1.933594,0 3.300781,1.34766 1.386719,1.34766 1.386719,3.24219 z"
         id="path61"
         inkscape:connector-curvature="0" />
    </g>
  </g>
</svg>
